0000.001 (0) Opened log file at time: Sun, 30 Jul 2017 15:24:04 +0000 on http://www.eduquesthub.com
0000.001 (0) UpdraftPlus WordPress backup plugin (https://updraftplus.com): 1.13.4 WP: 4.8 PHP: 7.0.18-0ubuntu0.16.04.1 (apache2handler, Linux ip-172-31-28-165 4.4.0-1022-aws #31-Ubuntu SMP Tue Jun 27 11:27:55 UTC 2017 x86_64) MySQL: 5.7.19 WPLANG: en_US Server: Apache/2.4.18 (Ubuntu) safe_mode: 0 max_execution_time: 900 memory_limit: 256M (used: 12.8M | 2M) multisite: N openssl: OpenSSL 1.0.2g  1 Mar 2016 mcrypt: N LANG: C ZipArchive::addFile: N
0000.002 (0) Free space on disk containing Updraft's temporary directory: 3970.6 MB
0000.004 (0) Tasks: Backup files:  (schedule: daily) Backup DB: 1 (schedule: twicedaily)
0000.005 (0) Processed schedules. Tasks now: Backup files:  Backup DB: 1
0000.009 (0) Requesting semaphore lock (d) (apparently via scheduler: last_scheduled_action_called_at=1501291127, seconds_ago=137117)
0000.011 (0) Set semaphore last lock (d) time to 2017-07-30 15:24:04
0000.011 (0) Semaphore lock (d) complete
0000.013 (0) Backup run: resumption=0, nonce=96b2315d2f9b, begun at=1501428244 (0s ago), job type=backup
0000.013 (0) Scheduling a resumption (1) after 300 seconds (1501428544) in case this run gets aborted
0000.014 (0) This backup run is not intended for files - skipping
0000.014 (0) Beginning creation of database dump (WordPress DB)
0000.080 (0) Table wprj_options: Total expected rows (approximate): 140487
0003.662 (0) Table wprj_options: Total rows added: 140483 in 3.58 seconds
0003.664 (0) Table wprj_options: finishing file (backup_2017-07-30-1524_Eduquest_Hub_96b2315d2f9b-db-table-wprj_options.table.gz - 1527.7 KB)
0003.666 (0) Table wprj_users: Total expected rows (approximate): 1
0003.667 (0) Table wprj_users: Total rows added: 1 in 0.00 seconds
0003.667 (0) Table wprj_users: finishing file (backup_2017-07-30-1524_Eduquest_Hub_96b2315d2f9b-db-table-wprj_users.table.gz - 0.6 KB)
0003.669 (0) Table wprj_usermeta: Total expected rows (approximate): 93
0003.675 (0) Table wprj_usermeta: Total rows added: 93 in 0.01 seconds
0003.676 (0) Table wprj_usermeta: finishing file (backup_2017-07-30-1524_Eduquest_Hub_96b2315d2f9b-db-table-wprj_usermeta.table.gz - 31.4 KB)
0003.677 (0) Table wprj_commentmeta: Total expected rows (approximate): 0
0003.678 (0) Table wprj_commentmeta: Total rows added: 0 in 0.00 seconds
0003.679 (0) Table wprj_commentmeta: finishing file (backup_2017-07-30-1524_Eduquest_Hub_96b2315d2f9b-db-table-wprj_commentmeta.table.gz - 0.4 KB)
0003.680 (0) Table wprj_comments: Total expected rows (approximate): 18
0003.681 (0) Table wprj_comments: Total rows added: 18 in 0.00 seconds
0003.682 (0) Table wprj_comments: finishing file (backup_2017-07-30-1524_Eduquest_Hub_96b2315d2f9b-db-table-wprj_comments.table.gz - 1.1 KB)
0003.684 (0) Table wprj_links: Total expected rows (approximate): 0
0003.685 (0) Table wprj_links: Total rows added: 0 in 0.00 seconds
0003.686 (0) Table wprj_links: finishing file (backup_2017-07-30-1524_Eduquest_Hub_96b2315d2f9b-db-table-wprj_links.table.gz - 0.4 KB)
0003.687 (0) Table wprj_postmeta: Total expected rows (approximate): 15746
0003.910 (0) Table wprj_postmeta: Total rows added: 15746 in 0.22 seconds
0003.911 (0) Table wprj_postmeta: finishing file (backup_2017-07-30-1524_Eduquest_Hub_96b2315d2f9b-db-table-wprj_postmeta.table.gz - 375.5 KB)
0003.913 (0) Table wprj_posts: Total expected rows (approximate): 1766
0004.354 (0) Table wprj_posts: Total rows added: 1766 in 0.44 seconds
0004.355 (0) Table wprj_posts: finishing file (backup_2017-07-30-1524_Eduquest_Hub_96b2315d2f9b-db-table-wprj_posts.table.gz - 1273.6 KB)
0004.357 (0) Table wprj_term_relationships: Total expected rows (approximate): 662
0004.359 (0) Table wprj_term_relationships: Total rows added: 662 in 0.00 seconds
0004.360 (0) Table wprj_term_relationships: finishing file (backup_2017-07-30-1524_Eduquest_Hub_96b2315d2f9b-db-table-wprj_term_relationships.table.gz - 2.3 KB)
0004.361 (0) Table wprj_term_taxonomy: Total expected rows (approximate): 189
0004.364 (0) Table wprj_term_taxonomy: Total rows added: 189 in 0.00 seconds
0004.364 (0) Table wprj_term_taxonomy: finishing file (backup_2017-07-30-1524_Eduquest_Hub_96b2315d2f9b-db-table-wprj_term_taxonomy.table.gz - 1.8 KB)
0004.366 (0) Table wprj_termmeta: Total expected rows (approximate): 32
0004.367 (0) Table wprj_termmeta: Total rows added: 32 in 0.00 seconds
0004.368 (0) Table wprj_termmeta: finishing file (backup_2017-07-30-1524_Eduquest_Hub_96b2315d2f9b-db-table-wprj_termmeta.table.gz - 0.8 KB)
0004.369 (0) Table wprj_terms: Total expected rows (approximate): 189
0004.371 (0) Table wprj_terms: Total rows added: 189 in 0.00 seconds
0004.371 (0) Table wprj_terms: finishing file (backup_2017-07-30-1524_Eduquest_Hub_96b2315d2f9b-db-table-wprj_terms.table.gz - 2.8 KB)
0004.373 (0) Table wprj_learnpress_order_itemmeta: Total expected rows (approximate): 0
0004.374 (0) Table wprj_learnpress_order_itemmeta: Total rows added: 0 in 0.00 seconds
0004.374 (0) Table wprj_learnpress_order_itemmeta: finishing file (backup_2017-07-30-1524_Eduquest_Hub_96b2315d2f9b-db-table-wprj_learnpress_order_itemmeta.table.gz - 0.4 KB)
0004.376 (0) Table wprj_learnpress_order_items: Total expected rows (approximate): 0
0004.376 (0) Table wprj_learnpress_order_items: Total rows added: 0 in 0.00 seconds
0004.377 (0) Table wprj_learnpress_order_items: finishing file (backup_2017-07-30-1524_Eduquest_Hub_96b2315d2f9b-db-table-wprj_learnpress_order_items.table.gz - 0.3 KB)
0004.379 (0) Table wprj_learnpress_question_answers: Total expected rows (approximate): 0
0004.381 (0) Table wprj_learnpress_question_answers: Total rows added: 0 in 0.00 seconds
0004.381 (0) Table wprj_learnpress_question_answers: finishing file (backup_2017-07-30-1524_Eduquest_Hub_96b2315d2f9b-db-table-wprj_learnpress_question_answers.table.gz - 0.3 KB)
0004.383 (0) Table wprj_learnpress_quiz_questions: Total expected rows (approximate): 0
0004.383 (0) Table wprj_learnpress_quiz_questions: Total rows added: 0 in 0.00 seconds
0004.384 (0) Table wprj_learnpress_quiz_questions: finishing file (backup_2017-07-30-1524_Eduquest_Hub_96b2315d2f9b-db-table-wprj_learnpress_quiz_questions.table.gz - 0.3 KB)
0004.385 (0) Table wprj_learnpress_review_logs: Total expected rows (approximate): 2
0004.386 (0) Table wprj_learnpress_review_logs: Total rows added: 2 in 0.00 seconds
0004.387 (0) Table wprj_learnpress_review_logs: finishing file (backup_2017-07-30-1524_Eduquest_Hub_96b2315d2f9b-db-table-wprj_learnpress_review_logs.table.gz - 0.5 KB)
0004.388 (0) Table wprj_learnpress_section_items: Total expected rows (approximate): 0
0004.389 (0) Table wprj_learnpress_section_items: Total rows added: 0 in 0.00 seconds
0004.389 (0) Table wprj_learnpress_section_items: finishing file (backup_2017-07-30-1524_Eduquest_Hub_96b2315d2f9b-db-table-wprj_learnpress_section_items.table.gz - 0.3 KB)
0004.391 (0) Table wprj_learnpress_sections: Total expected rows (approximate): 0
0004.392 (0) Table wprj_learnpress_sections: Total rows added: 0 in 0.00 seconds
0004.392 (0) Table wprj_learnpress_sections: finishing file (backup_2017-07-30-1524_Eduquest_Hub_96b2315d2f9b-db-table-wprj_learnpress_sections.table.gz - 0.4 KB)
0004.395 (0) Table wprj_learnpress_sessions: Total expected rows (approximate): 0
0004.395 (0) Table wprj_learnpress_sessions: Total rows added: 0 in 0.00 seconds
0004.396 (0) Table wprj_learnpress_sessions: finishing file (backup_2017-07-30-1524_Eduquest_Hub_96b2315d2f9b-db-table-wprj_learnpress_sessions.table.gz - 0.4 KB)
0004.398 (0) Table wprj_learnpress_user_itemmeta: Total expected rows (approximate): 0
0004.399 (0) Table wprj_learnpress_user_itemmeta: Total rows added: 0 in 0.00 seconds
0004.399 (0) Table wprj_learnpress_user_itemmeta: finishing file (backup_2017-07-30-1524_Eduquest_Hub_96b2315d2f9b-db-table-wprj_learnpress_user_itemmeta.table.gz - 0.3 KB)
0004.401 (0) Table wprj_learnpress_user_items: Total expected rows (approximate): 0
0004.402 (0) Table wprj_learnpress_user_items: Total rows added: 0 in 0.00 seconds
0004.402 (0) Table wprj_learnpress_user_items: finishing file (backup_2017-07-30-1524_Eduquest_Hub_96b2315d2f9b-db-table-wprj_learnpress_user_items.table.gz - 0.4 KB)
0004.405 (0) Table wprj_loginizer_logs: Total expected rows (approximate): 0
0004.405 (0) Table wprj_loginizer_logs: Total rows added: 0 in 0.00 seconds
0004.406 (0) Table wprj_loginizer_logs: finishing file (backup_2017-07-30-1524_Eduquest_Hub_96b2315d2f9b-db-table-wprj_loginizer_logs.table.gz - 0.3 KB)
0004.407 (0) Table wprj_ratings: Total expected rows (approximate): 2
0004.409 (0) Table wprj_ratings: Total rows added: 3 in 0.00 seconds
0004.410 (0) Table wprj_ratings: finishing file (backup_2017-07-30-1524_Eduquest_Hub_96b2315d2f9b-db-table-wprj_ratings.table.gz - 0.5 KB)
0004.411 (0) Table wprj_revslider_css: Total expected rows (approximate): 109
0004.414 (0) Table wprj_revslider_css: Total rows added: 109 in 0.00 seconds
0004.414 (0) Table wprj_revslider_css: finishing file (backup_2017-07-30-1524_Eduquest_Hub_96b2315d2f9b-db-table-wprj_revslider_css.table.gz - 4.9 KB)
0004.416 (0) Table wprj_revslider_layer_animations: Total expected rows (approximate): 0
0004.418 (0) Table wprj_revslider_layer_animations: Total rows added: 0 in 0.00 seconds
0004.418 (0) Table wprj_revslider_layer_animations: finishing file (backup_2017-07-30-1524_Eduquest_Hub_96b2315d2f9b-db-table-wprj_revslider_layer_animations.table.gz - 0.3 KB)
0004.420 (0) Table wprj_revslider_navigations: Total expected rows (approximate): 0
0004.420 (0) Table wprj_revslider_navigations: Total rows added: 0 in 0.00 seconds
0004.421 (0) Table wprj_revslider_navigations: finishing file (backup_2017-07-30-1524_Eduquest_Hub_96b2315d2f9b-db-table-wprj_revslider_navigations.table.gz - 0.3 KB)
0004.422 (0) Table wprj_revslider_sliders: Total expected rows (approximate): 2
0004.424 (0) Table wprj_revslider_sliders: Total rows added: 2 in 0.00 seconds
0004.424 (0) Table wprj_revslider_sliders: finishing file (backup_2017-07-30-1524_Eduquest_Hub_96b2315d2f9b-db-table-wprj_revslider_sliders.table.gz - 3.5 KB)
0004.426 (0) Table wprj_revslider_slides: Total expected rows (approximate): 5
0004.427 (0) Table wprj_revslider_slides: Total rows added: 5 in 0.00 seconds
0004.428 (0) Table wprj_revslider_slides: finishing file (backup_2017-07-30-1524_Eduquest_Hub_96b2315d2f9b-db-table-wprj_revslider_slides.table.gz - 4.4 KB)
0004.429 (0) Table wprj_revslider_static_slides: Total expected rows (approximate): 0
0004.430 (0) Table wprj_revslider_static_slides: Total rows added: 0 in 0.00 seconds
0004.431 (0) Table wprj_revslider_static_slides: finishing file (backup_2017-07-30-1524_Eduquest_Hub_96b2315d2f9b-db-table-wprj_revslider_static_slides.table.gz - 0.3 KB)
0004.432 (0) Table wprj_richreviews: Total expected rows (approximate): 13
0004.433 (0) Table wprj_richreviews: Total rows added: 14 in 0.00 seconds
0004.434 (0) Table wprj_richreviews: finishing file (backup_2017-07-30-1524_Eduquest_Hub_96b2315d2f9b-db-table-wprj_richreviews.table.gz - 0.9 KB)
0004.435 (0) Table wprj_toolset_post_guid_id: Total expected rows (approximate): 0
0004.436 (0) Table wprj_toolset_post_guid_id: Total rows added: 0 in 0.00 seconds
0004.437 (0) Table wprj_toolset_post_guid_id: finishing file (backup_2017-07-30-1524_Eduquest_Hub_96b2315d2f9b-db-table-wprj_toolset_post_guid_id.table.gz - 0.3 KB)
0004.438 (0) Table wprj_wfBadLeechers: Total expected rows (approximate): 0
0004.439 (0) Table wprj_wfBadLeechers: Total rows added: 0 in 0.00 seconds
0004.439 (0) Table wprj_wfBadLeechers: finishing file (backup_2017-07-30-1524_Eduquest_Hub_96b2315d2f9b-db-table-wprj_wfBadLeechers.table.gz - 0.3 KB)
0004.441 (0) Table wprj_wfBlockedIPLog: Total expected rows (approximate): 8
0004.442 (0) Table wprj_wfBlockedIPLog: Total rows added: 9 in 0.00 seconds
0004.442 (0) Table wprj_wfBlockedIPLog: finishing file (backup_2017-07-30-1524_Eduquest_Hub_96b2315d2f9b-db-table-wprj_wfBlockedIPLog.table.gz - 0.5 KB)
0004.444 (0) Table wprj_wfBlocks: Total expected rows (approximate): 0
0004.445 (0) Table wprj_wfBlocks: Total rows added: 0 in 0.00 seconds
0004.445 (0) Table wprj_wfBlocks: finishing file (backup_2017-07-30-1524_Eduquest_Hub_96b2315d2f9b-db-table-wprj_wfBlocks.table.gz - 0.3 KB)
0004.447 (0) Table wprj_wfBlocksAdv: Total expected rows (approximate): 0
0004.448 (0) Table wprj_wfBlocksAdv: Total rows added: 0 in 0.00 seconds
0004.448 (0) Table wprj_wfBlocksAdv: finishing file (backup_2017-07-30-1524_Eduquest_Hub_96b2315d2f9b-db-table-wprj_wfBlocksAdv.table.gz - 0.3 KB)
0004.450 (0) Table wprj_wfConfig: Total expected rows (approximate): 155
0004.462 (0) Table wprj_wfConfig: Total rows added: 180 in 0.01 seconds
0004.462 (0) Table wprj_wfConfig: finishing file (backup_2017-07-30-1524_Eduquest_Hub_96b2315d2f9b-db-table-wprj_wfConfig.table.gz - 234.7 KB)
0004.464 (0) Table wprj_wfCrawlers: Total expected rows (approximate): 2
0004.465 (0) Table wprj_wfCrawlers: Total rows added: 2 in 0.00 seconds
0004.465 (0) Table wprj_wfCrawlers: finishing file (backup_2017-07-30-1524_Eduquest_Hub_96b2315d2f9b-db-table-wprj_wfCrawlers.table.gz - 0.5 KB)
0004.467 (0) Table wprj_wfFileMods: Total expected rows (approximate): 19861
0004.826 (0) Table wprj_wfFileMods: Total rows added: 19789 in 0.36 seconds
0004.827 (0) Table wprj_wfFileMods: finishing file (backup_2017-07-30-1524_Eduquest_Hub_96b2315d2f9b-db-table-wprj_wfFileMods.table.gz - 1757.5 KB)
0004.829 (0) Table wprj_wfHits: Total expected rows (approximate): 2074
0004.862 (0) Table wprj_wfHits: Total rows added: 2045 in 0.03 seconds
0004.863 (0) Table wprj_wfHits: finishing file (backup_2017-07-30-1524_Eduquest_Hub_96b2315d2f9b-db-table-wprj_wfHits.table.gz - 30.9 KB)
0004.864 (0) Table wprj_wfHoover: Total expected rows (approximate): 0
0004.865 (0) Table wprj_wfHoover: Total rows added: 0 in 0.00 seconds
0004.866 (0) Table wprj_wfHoover: finishing file (backup_2017-07-30-1524_Eduquest_Hub_96b2315d2f9b-db-table-wprj_wfHoover.table.gz - 0.3 KB)
0004.867 (0) Table wprj_wfIssues: Total expected rows (approximate): 11
0004.869 (0) Table wprj_wfIssues: Total rows added: 11 in 0.00 seconds
0004.870 (0) Table wprj_wfIssues: finishing file (backup_2017-07-30-1524_Eduquest_Hub_96b2315d2f9b-db-table-wprj_wfIssues.table.gz - 3.1 KB)
0004.872 (0) Table wprj_wfKnownFileList: Total expected rows (approximate): 19511
0005.066 (0) Table wprj_wfKnownFileList: Total rows added: 19793 in 0.19 seconds
0005.067 (0) Table wprj_wfKnownFileList: finishing file (backup_2017-07-30-1524_Eduquest_Hub_96b2315d2f9b-db-table-wprj_wfKnownFileList.table.gz - 186.6 KB)
0005.069 (0) Table wprj_wfLeechers: Total expected rows (approximate): 106
0005.071 (0) Table wprj_wfLeechers: Total rows added: 106 in 0.00 seconds
0005.071 (0) Table wprj_wfLeechers: finishing file (backup_2017-07-30-1524_Eduquest_Hub_96b2315d2f9b-db-table-wprj_wfLeechers.table.gz - 1 KB)
0005.073 (0) Table wprj_wfLockedOut: Total expected rows (approximate): 0
0005.074 (0) Table wprj_wfLockedOut: Total rows added: 0 in 0.00 seconds
0005.074 (0) Table wprj_wfLockedOut: finishing file (backup_2017-07-30-1524_Eduquest_Hub_96b2315d2f9b-db-table-wprj_wfLockedOut.table.gz - 0.3 KB)
0005.076 (0) Table wprj_wfLocs: Total expected rows (approximate): 1
0005.077 (0) Table wprj_wfLocs: Total rows added: 2 in 0.00 seconds
0005.077 (0) Table wprj_wfLocs: finishing file (backup_2017-07-30-1524_Eduquest_Hub_96b2315d2f9b-db-table-wprj_wfLocs.table.gz - 0.5 KB)
0005.079 (0) Table wprj_wfLogins: Total expected rows (approximate): 148
0005.082 (0) Table wprj_wfLogins: Total rows added: 162 in 0.00 seconds
0005.082 (0) Table wprj_wfLogins: finishing file (backup_2017-07-30-1524_Eduquest_Hub_96b2315d2f9b-db-table-wprj_wfLogins.table.gz - 4 KB)
0005.086 (0) Table wprj_wfNet404s: Total expected rows (approximate): 0
0005.087 (0) Table wprj_wfNet404s: Total rows added: 0 in 0.00 seconds
0005.087 (0) Table wprj_wfNet404s: finishing file (backup_2017-07-30-1524_Eduquest_Hub_96b2315d2f9b-db-table-wprj_wfNet404s.table.gz - 0.3 KB)
0005.089 (0) Table wprj_wfNotifications: Total expected rows (approximate): 11
0005.090 (0) Table wprj_wfNotifications: Total rows added: 11 in 0.00 seconds
0005.090 (0) Table wprj_wfNotifications: finishing file (backup_2017-07-30-1524_Eduquest_Hub_96b2315d2f9b-db-table-wprj_wfNotifications.table.gz - 1.9 KB)
0005.092 (0) Table wprj_wfPendingIssues: Total expected rows (approximate): 0
0005.094 (0) Table wprj_wfPendingIssues: Total rows added: 0 in 0.00 seconds
0005.094 (0) Table wprj_wfPendingIssues: finishing file (backup_2017-07-30-1524_Eduquest_Hub_96b2315d2f9b-db-table-wprj_wfPendingIssues.table.gz - 0.4 KB)
0005.096 (0) Table wprj_wfReverseCache: Total expected rows (approximate): 2
0005.096 (0) Table wprj_wfReverseCache: Total rows added: 3 in 0.00 seconds
0005.097 (0) Table wprj_wfReverseCache: finishing file (backup_2017-07-30-1524_Eduquest_Hub_96b2315d2f9b-db-table-wprj_wfReverseCache.table.gz - 0.4 KB)
0005.098 (0) Table wprj_wfSNIPCache: Total expected rows (approximate): 0
0005.100 (0) Table wprj_wfSNIPCache: Total rows added: 0 in 0.00 seconds
0005.100 (0) Table wprj_wfSNIPCache: finishing file (backup_2017-07-30-1524_Eduquest_Hub_96b2315d2f9b-db-table-wprj_wfSNIPCache.table.gz - 0.4 KB)
0005.102 (0) Table wprj_wfScanners: Total expected rows (approximate): 40
0005.104 (0) Table wprj_wfScanners: Total rows added: 40 in 0.00 seconds
0005.104 (0) Table wprj_wfScanners: finishing file (backup_2017-07-30-1524_Eduquest_Hub_96b2315d2f9b-db-table-wprj_wfScanners.table.gz - 0.6 KB)
0005.106 (0) Table wprj_wfStatus: Total expected rows (approximate): 1523
0005.118 (0) Table wprj_wfStatus: Total rows added: 1530 in 0.01 seconds
0005.119 (0) Table wprj_wfStatus: finishing file (backup_2017-07-30-1524_Eduquest_Hub_96b2315d2f9b-db-table-wprj_wfStatus.table.gz - 26.1 KB)
0005.121 (0) Table wprj_wfThrottleLog: Total expected rows (approximate): 0
0005.123 (0) Table wprj_wfThrottleLog: Total rows added: 0 in 0.00 seconds
0005.124 (0) Table wprj_wfThrottleLog: finishing file (backup_2017-07-30-1524_Eduquest_Hub_96b2315d2f9b-db-table-wprj_wfThrottleLog.table.gz - 0.3 KB)
0005.125 (0) Table wprj_wfVulnScanners: Total expected rows (approximate): 0
0005.126 (0) Table wprj_wfVulnScanners: Total rows added: 0 in 0.00 seconds
0005.126 (0) Table wprj_wfVulnScanners: finishing file (backup_2017-07-30-1524_Eduquest_Hub_96b2315d2f9b-db-table-wprj_wfVulnScanners.table.gz - 0.3 KB)
0005.129 (0) Table wprj_woocommerce_api_keys: Total expected rows (approximate): 0
0005.130 (0) Table wprj_woocommerce_api_keys: Total rows added: 0 in 0.00 seconds
0005.130 (0) Table wprj_woocommerce_api_keys: finishing file (backup_2017-07-30-1524_Eduquest_Hub_96b2315d2f9b-db-table-wprj_woocommerce_api_keys.table.gz - 0.4 KB)
0005.132 (0) Table wprj_woocommerce_attribute_taxonomies: Total expected rows (approximate): 0
0005.134 (0) Table wprj_woocommerce_attribute_taxonomies: Total rows added: 0 in 0.00 seconds
0005.134 (0) Table wprj_woocommerce_attribute_taxonomies: finishing file (backup_2017-07-30-1524_Eduquest_Hub_96b2315d2f9b-db-table-wprj_woocommerce_attribute_taxonomies.table.gz - 0.4 KB)
0005.136 (0) Table wprj_woocommerce_downloadable_product_permissions: Total expected rows (approximate): 0
0005.137 (0) Table wprj_woocommerce_downloadable_product_permissions: Total rows added: 0 in 0.00 seconds
0005.137 (0) Table wprj_woocommerce_downloadable_product_permissions: finishing file (backup_2017-07-30-1524_Eduquest_Hub_96b2315d2f9b-db-table-wprj_woocommerce_downloadable_product_permissions.table.gz - 0.5 KB)
0005.139 (0) Table wprj_woocommerce_log: Total expected rows (approximate): 0
0005.142 (0) Table wprj_woocommerce_log: Total rows added: 0 in 0.00 seconds
0005.142 (0) Table wprj_woocommerce_log: finishing file (backup_2017-07-30-1524_Eduquest_Hub_96b2315d2f9b-db-table-wprj_woocommerce_log.table.gz - 0.4 KB)
0005.145 (0) Table wprj_woocommerce_order_itemmeta: Total expected rows (approximate): 0
0005.145 (0) Table wprj_woocommerce_order_itemmeta: Total rows added: 0 in 0.00 seconds
0005.146 (0) Table wprj_woocommerce_order_itemmeta: finishing file (backup_2017-07-30-1524_Eduquest_Hub_96b2315d2f9b-db-table-wprj_woocommerce_order_itemmeta.table.gz - 0.4 KB)
0005.148 (0) Table wprj_woocommerce_order_items: Total expected rows (approximate): 0
0005.149 (0) Table wprj_woocommerce_order_items: Total rows added: 0 in 0.00 seconds
0005.149 (0) Table wprj_woocommerce_order_items: finishing file (backup_2017-07-30-1524_Eduquest_Hub_96b2315d2f9b-db-table-wprj_woocommerce_order_items.table.gz - 0.4 KB)
0005.151 (0) Table wprj_woocommerce_payment_tokenmeta: Total expected rows (approximate): 0
0005.152 (0) Table wprj_woocommerce_payment_tokenmeta: Total rows added: 0 in 0.00 seconds
0005.153 (0) Table wprj_woocommerce_payment_tokenmeta: finishing file (backup_2017-07-30-1524_Eduquest_Hub_96b2315d2f9b-db-table-wprj_woocommerce_payment_tokenmeta.table.gz - 0.4 KB)
0005.155 (0) Table wprj_woocommerce_payment_tokens: Total expected rows (approximate): 0
0005.156 (0) Table wprj_woocommerce_payment_tokens: Total rows added: 0 in 0.00 seconds
0005.156 (0) Table wprj_woocommerce_payment_tokens: finishing file (backup_2017-07-30-1524_Eduquest_Hub_96b2315d2f9b-db-table-wprj_woocommerce_payment_tokens.table.gz - 0.4 KB)
0005.159 (0) Table wprj_woocommerce_sessions: Total expected rows (approximate): 145
0005.164 (0) Table wprj_woocommerce_sessions: Total rows added: 145 in 0.00 seconds
0005.164 (0) Table wprj_woocommerce_sessions: finishing file (backup_2017-07-30-1524_Eduquest_Hub_96b2315d2f9b-db-table-wprj_woocommerce_sessions.table.gz - 5.2 KB)
0005.166 (0) Table wprj_woocommerce_shipping_zone_locations: Total expected rows (approximate): 0
0005.168 (0) Table wprj_woocommerce_shipping_zone_locations: Total rows added: 0 in 0.00 seconds
0005.168 (0) Table wprj_woocommerce_shipping_zone_locations: finishing file (backup_2017-07-30-1524_Eduquest_Hub_96b2315d2f9b-db-table-wprj_woocommerce_shipping_zone_locations.table.gz - 0.4 KB)
0005.170 (0) Table wprj_woocommerce_shipping_zone_methods: Total expected rows (approximate): 0
0005.171 (0) Table wprj_woocommerce_shipping_zone_methods: Total rows added: 0 in 0.00 seconds
0005.172 (0) Table wprj_woocommerce_shipping_zone_methods: finishing file (backup_2017-07-30-1524_Eduquest_Hub_96b2315d2f9b-db-table-wprj_woocommerce_shipping_zone_methods.table.gz - 0.4 KB)
0005.174 (0) Table wprj_woocommerce_shipping_zones: Total expected rows (approximate): 0
0005.175 (0) Table wprj_woocommerce_shipping_zones: Total rows added: 0 in 0.00 seconds
0005.175 (0) Table wprj_woocommerce_shipping_zones: finishing file (backup_2017-07-30-1524_Eduquest_Hub_96b2315d2f9b-db-table-wprj_woocommerce_shipping_zones.table.gz - 0.3 KB)
0005.177 (0) Table wprj_woocommerce_tax_rate_locations: Total expected rows (approximate): 0
0005.178 (0) Table wprj_woocommerce_tax_rate_locations: Total rows added: 0 in 0.00 seconds
0005.178 (0) Table wprj_woocommerce_tax_rate_locations: finishing file (backup_2017-07-30-1524_Eduquest_Hub_96b2315d2f9b-db-table-wprj_woocommerce_tax_rate_locations.table.gz - 0.4 KB)
0005.181 (0) Table wprj_woocommerce_tax_rates: Total expected rows (approximate): 0
0005.181 (0) Table wprj_woocommerce_tax_rates: Total rows added: 0 in 0.00 seconds
0005.182 (0) Table wprj_woocommerce_tax_rates: finishing file (backup_2017-07-30-1524_Eduquest_Hub_96b2315d2f9b-db-table-wprj_woocommerce_tax_rates.table.gz - 0.4 KB)
0005.184 (0) Table wprj_yoast_seo_links: Total expected rows (approximate): 15
0005.185 (0) Table wprj_yoast_seo_links: Total rows added: 15 in 0.00 seconds
0005.185 (0) Table wprj_yoast_seo_links: finishing file (backup_2017-07-30-1524_Eduquest_Hub_96b2315d2f9b-db-table-wprj_yoast_seo_links.table.gz - 0.6 KB)
0005.186 (0) Table wprj_yoast_seo_meta: Total expected rows (approximate): 4
0005.187 (0) Table wprj_yoast_seo_meta: Total rows added: 4 in 0.00 seconds
0005.188 (0) Table wprj_yoast_seo_meta: finishing file (backup_2017-07-30-1524_Eduquest_Hub_96b2315d2f9b-db-table-wprj_yoast_seo_meta.table.gz - 0.4 KB)
0005.189 (0) backup_2017-07-30-1524_Eduquest_Hub_96b2315d2f9b-db-table-wprj_options.table.gz (1/72): adding to final database dump
0005.527 (0) backup_2017-07-30-1524_Eduquest_Hub_96b2315d2f9b-db-table-wprj_users.table.gz (2/72): adding to final database dump
0005.528 (0) backup_2017-07-30-1524_Eduquest_Hub_96b2315d2f9b-db-table-wprj_usermeta.table.gz (3/72): adding to final database dump
0005.535 (0) backup_2017-07-30-1524_Eduquest_Hub_96b2315d2f9b-db-table-wprj_commentmeta.table.gz (4/72): adding to final database dump
0005.535 (0) backup_2017-07-30-1524_Eduquest_Hub_96b2315d2f9b-db-table-wprj_comments.table.gz (5/72): adding to final database dump
0005.536 (0) backup_2017-07-30-1524_Eduquest_Hub_96b2315d2f9b-db-table-wprj_links.table.gz (6/72): adding to final database dump
0005.536 (0) backup_2017-07-30-1524_Eduquest_Hub_96b2315d2f9b-db-table-wprj_postmeta.table.gz (7/72): adding to final database dump
0005.678 (0) backup_2017-07-30-1524_Eduquest_Hub_96b2315d2f9b-db-table-wprj_posts.table.gz (8/72): adding to final database dump
0005.969 (0) backup_2017-07-30-1524_Eduquest_Hub_96b2315d2f9b-db-table-wprj_term_relationships.table.gz (9/72): adding to final database dump
0005.970 (0) backup_2017-07-30-1524_Eduquest_Hub_96b2315d2f9b-db-table-wprj_term_taxonomy.table.gz (10/72): adding to final database dump
0005.971 (0) backup_2017-07-30-1524_Eduquest_Hub_96b2315d2f9b-db-table-wprj_termmeta.table.gz (11/72): adding to final database dump
0005.972 (0) backup_2017-07-30-1524_Eduquest_Hub_96b2315d2f9b-db-table-wprj_terms.table.gz (12/72): adding to final database dump
0005.972 (0) backup_2017-07-30-1524_Eduquest_Hub_96b2315d2f9b-db-table-wprj_learnpress_order_itemmeta.table.gz (13/72): adding to final database dump
0005.973 (0) backup_2017-07-30-1524_Eduquest_Hub_96b2315d2f9b-db-table-wprj_learnpress_order_items.table.gz (14/72): adding to final database dump
0005.973 (0) backup_2017-07-30-1524_Eduquest_Hub_96b2315d2f9b-db-table-wprj_learnpress_question_answers.table.gz (15/72): adding to final database dump
0005.974 (0) backup_2017-07-30-1524_Eduquest_Hub_96b2315d2f9b-db-table-wprj_learnpress_quiz_questions.table.gz (16/72): adding to final database dump
0005.974 (0) backup_2017-07-30-1524_Eduquest_Hub_96b2315d2f9b-db-table-wprj_learnpress_review_logs.table.gz (17/72): adding to final database dump
0005.974 (0) backup_2017-07-30-1524_Eduquest_Hub_96b2315d2f9b-db-table-wprj_learnpress_section_items.table.gz (18/72): adding to final database dump
0005.975 (0) backup_2017-07-30-1524_Eduquest_Hub_96b2315d2f9b-db-table-wprj_learnpress_sections.table.gz (19/72): adding to final database dump
0005.975 (0) backup_2017-07-30-1524_Eduquest_Hub_96b2315d2f9b-db-table-wprj_learnpress_sessions.table.gz (20/72): adding to final database dump
0005.975 (0) backup_2017-07-30-1524_Eduquest_Hub_96b2315d2f9b-db-table-wprj_learnpress_user_itemmeta.table.gz (21/72): adding to final database dump
0005.976 (0) backup_2017-07-30-1524_Eduquest_Hub_96b2315d2f9b-db-table-wprj_learnpress_user_items.table.gz (22/72): adding to final database dump
0005.976 (0) backup_2017-07-30-1524_Eduquest_Hub_96b2315d2f9b-db-table-wprj_loginizer_logs.table.gz (23/72): adding to final database dump
0005.976 (0) backup_2017-07-30-1524_Eduquest_Hub_96b2315d2f9b-db-table-wprj_ratings.table.gz (24/72): adding to final database dump
0005.977 (0) backup_2017-07-30-1524_Eduquest_Hub_96b2315d2f9b-db-table-wprj_revslider_css.table.gz (25/72): adding to final database dump
0005.979 (0) backup_2017-07-30-1524_Eduquest_Hub_96b2315d2f9b-db-table-wprj_revslider_layer_animations.table.gz (26/72): adding to final database dump
0005.979 (0) backup_2017-07-30-1524_Eduquest_Hub_96b2315d2f9b-db-table-wprj_revslider_navigations.table.gz (27/72): adding to final database dump
0005.979 (0) backup_2017-07-30-1524_Eduquest_Hub_96b2315d2f9b-db-table-wprj_revslider_sliders.table.gz (28/72): adding to final database dump
0005.980 (0) backup_2017-07-30-1524_Eduquest_Hub_96b2315d2f9b-db-table-wprj_revslider_slides.table.gz (29/72): adding to final database dump
0005.982 (0) backup_2017-07-30-1524_Eduquest_Hub_96b2315d2f9b-db-table-wprj_revslider_static_slides.table.gz (30/72): adding to final database dump
0005.982 (0) backup_2017-07-30-1524_Eduquest_Hub_96b2315d2f9b-db-table-wprj_richreviews.table.gz (31/72): adding to final database dump
0005.983 (0) backup_2017-07-30-1524_Eduquest_Hub_96b2315d2f9b-db-table-wprj_toolset_post_guid_id.table.gz (32/72): adding to final database dump
0005.983 (0) backup_2017-07-30-1524_Eduquest_Hub_96b2315d2f9b-db-table-wprj_wfBadLeechers.table.gz (33/72): adding to final database dump
0005.983 (0) backup_2017-07-30-1524_Eduquest_Hub_96b2315d2f9b-db-table-wprj_wfBlockedIPLog.table.gz (34/72): adding to final database dump
0005.984 (0) backup_2017-07-30-1524_Eduquest_Hub_96b2315d2f9b-db-table-wprj_wfBlocks.table.gz (35/72): adding to final database dump
0005.984 (0) backup_2017-07-30-1524_Eduquest_Hub_96b2315d2f9b-db-table-wprj_wfBlocksAdv.table.gz (36/72): adding to final database dump
0005.985 (0) backup_2017-07-30-1524_Eduquest_Hub_96b2315d2f9b-db-table-wprj_wfConfig.table.gz (37/72): adding to final database dump
0005.996 (0) backup_2017-07-30-1524_Eduquest_Hub_96b2315d2f9b-db-table-wprj_wfCrawlers.table.gz (38/72): adding to final database dump
0005.997 (0) backup_2017-07-30-1524_Eduquest_Hub_96b2315d2f9b-db-table-wprj_wfFileMods.table.gz (39/72): adding to final database dump
0006.166 (0) backup_2017-07-30-1524_Eduquest_Hub_96b2315d2f9b-db-table-wprj_wfHits.table.gz (40/72): adding to final database dump
0006.174 (0) backup_2017-07-30-1524_Eduquest_Hub_96b2315d2f9b-db-table-wprj_wfHoover.table.gz (41/72): adding to final database dump
0006.175 (0) backup_2017-07-30-1524_Eduquest_Hub_96b2315d2f9b-db-table-wprj_wfIssues.table.gz (42/72): adding to final database dump
0006.175 (0) backup_2017-07-30-1524_Eduquest_Hub_96b2315d2f9b-db-table-wprj_wfKnownFileList.table.gz (43/72): adding to final database dump
0006.219 (0) backup_2017-07-30-1524_Eduquest_Hub_96b2315d2f9b-db-table-wprj_wfLeechers.table.gz (44/72): adding to final database dump
0006.220 (0) backup_2017-07-30-1524_Eduquest_Hub_96b2315d2f9b-db-table-wprj_wfLockedOut.table.gz (45/72): adding to final database dump
0006.220 (0) backup_2017-07-30-1524_Eduquest_Hub_96b2315d2f9b-db-table-wprj_wfLocs.table.gz (46/72): adding to final database dump
0006.221 (0) backup_2017-07-30-1524_Eduquest_Hub_96b2315d2f9b-db-table-wprj_wfLogins.table.gz (47/72): adding to final database dump
0006.222 (0) backup_2017-07-30-1524_Eduquest_Hub_96b2315d2f9b-db-table-wprj_wfNet404s.table.gz (48/72): adding to final database dump
0006.222 (0) backup_2017-07-30-1524_Eduquest_Hub_96b2315d2f9b-db-table-wprj_wfNotifications.table.gz (49/72): adding to final database dump
0006.223 (0) backup_2017-07-30-1524_Eduquest_Hub_96b2315d2f9b-db-table-wprj_wfPendingIssues.table.gz (50/72): adding to final database dump
0006.223 (0) backup_2017-07-30-1524_Eduquest_Hub_96b2315d2f9b-db-table-wprj_wfReverseCache.table.gz (51/72): adding to final database dump
0006.223 (0) backup_2017-07-30-1524_Eduquest_Hub_96b2315d2f9b-db-table-wprj_wfSNIPCache.table.gz (52/72): adding to final database dump
0006.224 (0) backup_2017-07-30-1524_Eduquest_Hub_96b2315d2f9b-db-table-wprj_wfScanners.table.gz (53/72): adding to final database dump
0006.224 (0) backup_2017-07-30-1524_Eduquest_Hub_96b2315d2f9b-db-table-wprj_wfStatus.table.gz (54/72): adding to final database dump
0006.229 (0) backup_2017-07-30-1524_Eduquest_Hub_96b2315d2f9b-db-table-wprj_wfThrottleLog.table.gz (55/72): adding to final database dump
0006.229 (0) backup_2017-07-30-1524_Eduquest_Hub_96b2315d2f9b-db-table-wprj_wfVulnScanners.table.gz (56/72): adding to final database dump
0006.230 (0) backup_2017-07-30-1524_Eduquest_Hub_96b2315d2f9b-db-table-wprj_woocommerce_api_keys.table.gz (57/72): adding to final database dump
0006.230 (0) backup_2017-07-30-1524_Eduquest_Hub_96b2315d2f9b-db-table-wprj_woocommerce_attribute_taxonomies.table.gz (58/72): adding to final database dump
0006.231 (0) backup_2017-07-30-1524_Eduquest_Hub_96b2315d2f9b-db-table-wprj_woocommerce_downloadable_product_permissions.table.gz (59/72): adding to final database dump
0006.231 (0) backup_2017-07-30-1524_Eduquest_Hub_96b2315d2f9b-db-table-wprj_woocommerce_log.table.gz (60/72): adding to final database dump
0006.231 (0) backup_2017-07-30-1524_Eduquest_Hub_96b2315d2f9b-db-table-wprj_woocommerce_order_itemmeta.table.gz (61/72): adding to final database dump
0006.232 (0) backup_2017-07-30-1524_Eduquest_Hub_96b2315d2f9b-db-table-wprj_woocommerce_order_items.table.gz (62/72): adding to final database dump
0006.232 (0) backup_2017-07-30-1524_Eduquest_Hub_96b2315d2f9b-db-table-wprj_woocommerce_payment_tokenmeta.table.gz (63/72): adding to final database dump
0006.232 (0) backup_2017-07-30-1524_Eduquest_Hub_96b2315d2f9b-db-table-wprj_woocommerce_payment_tokens.table.gz (64/72): adding to final database dump
0006.233 (0) backup_2017-07-30-1524_Eduquest_Hub_96b2315d2f9b-db-table-wprj_woocommerce_sessions.table.gz (65/72): adding to final database dump
0006.234 (0) backup_2017-07-30-1524_Eduquest_Hub_96b2315d2f9b-db-table-wprj_woocommerce_shipping_zone_locations.table.gz (66/72): adding to final database dump
0006.235 (0) backup_2017-07-30-1524_Eduquest_Hub_96b2315d2f9b-db-table-wprj_woocommerce_shipping_zone_methods.table.gz (67/72): adding to final database dump
0006.235 (0) backup_2017-07-30-1524_Eduquest_Hub_96b2315d2f9b-db-table-wprj_woocommerce_shipping_zones.table.gz (68/72): adding to final database dump
0006.236 (0) backup_2017-07-30-1524_Eduquest_Hub_96b2315d2f9b-db-table-wprj_woocommerce_tax_rate_locations.table.gz (69/72): adding to final database dump
0006.236 (0) backup_2017-07-30-1524_Eduquest_Hub_96b2315d2f9b-db-table-wprj_woocommerce_tax_rates.table.gz (70/72): adding to final database dump
0006.236 (0) backup_2017-07-30-1524_Eduquest_Hub_96b2315d2f9b-db-table-wprj_yoast_seo_links.table.gz (71/72): adding to final database dump
0006.237 (0) backup_2017-07-30-1524_Eduquest_Hub_96b2315d2f9b-db-table-wprj_yoast_seo_meta.table.gz (72/72): adding to final database dump
0006.237 (0) backup_2017-07-30-1524_Eduquest_Hub_96b2315d2f9b-db.gz: finished writing out complete database file (5464 KB)
0006.298 (0) Total database tables backed up: 72 (backup_2017-07-30-1524_Eduquest_Hub_96b2315d2f9b-db.gz, size: 5618065, sha256)
0006.300 (0) backup_2017-07-30-1524_Eduquest_Hub_96b2315d2f9b-db.gz: db: This file has not yet been successfully uploaded: will queue
0006.301 (0) Saving backup history. Total backup size: 5.4 MB
0006.302 (0) Requesting upload of the files that have not yet been successfully uploaded (1)
0006.303 (0) Cloud backup selection (1/1): dropbox (last)
0006.303 (0) Beginning dispatch of backup to remote (dropbox)
0006.303 (0) You do not appear to be authenticated with Dropbox (1)
0006.304 (0) Retain: beginning examination of existing backup sets; user setting: retain_files=5, retain_db=10
0006.304 (0) Number of backup sets in history: 4; groups (db): 1
0006.305 (0) Examining (for databases) backup set with group_id=0, nonce=96b2315d2f9b, datestamp=1501428244 (Jul 30 2017 15:24:04)
0006.305 (0) This backup set is the backup set just made, so will not be deleted.
0006.305 (0) Examining (for databases) backup set with group_id=0, nonce=9a863c767141, datestamp=1501292351 (Jul 29 2017 01:39:11)
0006.306 (0) Examining (for databases) backup set with group_id=0, nonce=e2a33da45efa, datestamp=1501291127 (Jul 29 2017 01:18:47)
0006.306 (0) This backup set remains non-empty (f=0/d=1); will retain in history
0006.306 (0) Examining (for databases) backup set with group_id=0, nonce=c52925f09986, datestamp=1501156634 (Jul 27 2017 11:57:14)
0006.306 (0) This backup set remains non-empty (f=1/d=1); will retain in history
0006.307 (0) Number of backup sets in history: 4; groups (files): 1
0006.307 (0) Examining (for files) backup set with nonce=96b2315d2f9b, datestamp=1501428244 (Jul 30 2017 15:24:04)
0006.307 (0) This backup set remains non-empty (f=0/d=1); will retain in history
0006.307 (0) Examining (for files) backup set with nonce=9a863c767141, datestamp=1501292351 (Jul 29 2017 01:39:11)
0006.308 (0) This backup set remains non-empty (f=1/d=0); will retain in history
0006.308 (0) Examining (for files) backup set with nonce=e2a33da45efa, datestamp=1501291127 (Jul 29 2017 01:18:47)
0006.308 (0) This backup set remains non-empty (f=0/d=1); will retain in history
0006.309 (0) Examining (for files) backup set with nonce=c52925f09986, datestamp=1501156634 (Jul 27 2017 11:57:14)
0006.309 (0) This backup set remains non-empty (f=1/d=1); will retain in history
0006.309 (0) Retain: saving new backup history (sets now: 4) and finishing retain operation
0006.310 (0) Resume backup (96b2315d2f9b, 0): finish run
0006.311 (0) Decremented the semaphore (d) by 1
0006.312 (0) Semaphore (d) unlocked
0006.312 (0) There were errors in the uploads, so the 'resume' event is remaining scheduled
0006.313 (0) No email will/can be sent - the user has not configured an email address.
0006.313 (0) The backup has not finished; a resumption is scheduled
81915.238 (1) Opened log file at time: Mon, 31 Jul 2017 14:09:20 +0000 on http://www.eduquesthub.com
81915.238 (1) UpdraftPlus WordPress backup plugin (https://updraftplus.com): 1.13.4 WP: 4.8 PHP: 7.0.18-0ubuntu0.16.04.1 (apache2handler, Linux ip-172-31-28-165 4.4.0-1022-aws #31-Ubuntu SMP Tue Jun 27 11:27:55 UTC 2017 x86_64) MySQL: 5.7.19 WPLANG: en_US Server: Apache/2.4.18 (Ubuntu) safe_mode: 0 max_execution_time: 900 memory_limit: 256M (used: 12.7M | 8M) multisite: N openssl: OpenSSL 1.0.2g  1 Mar 2016 mcrypt: N LANG: C ZipArchive::addFile: N
81915.239 (1) Free space on disk containing Updraft's temporary directory: 3754.9 MB
81915.239 (1) Backup run: resumption=1, nonce=96b2315d2f9b, begun at=1501428244 (81916s ago), job type=backup, previous check-in=5.2s
81915.240 (1) Long time past since expected resumption time: approx expected=1501428550.1, now=1501510160.2, diff=81610
81915.240 (1) [Warning] Your website is visited infrequently and UpdraftPlus is not getting the resources it hoped for; please read this page: https://updraftplus.com/faqs/why-am-i-getting-warnings-about-my-site-not-having-enough-visitors/
81915.241 (1) Scheduling a resumption (2) after 300 seconds (1501510460) in case this run gets aborted
81915.254 (1) This backup run is not intended for files - skipping
81915.255 (1) Database dump (WordPress DB): Creation was completed already
81915.257 (1) backup_2017-07-30-1524_Eduquest_Hub_96b2315d2f9b-db.gz: db: This file has not yet been successfully uploaded: will queue
81915.257 (1) Saving backup history. Total backup size: 5.4 MB
81915.259 (1) Requesting upload of the files that have not yet been successfully uploaded (1)
81915.259 (1) Cloud backup selection (1/1): dropbox (last)
81915.265 (1) Beginning dispatch of backup to remote (dropbox)
81915.265 (1) You do not appear to be authenticated with Dropbox (1)
81915.265 (1) An error condition has occurred for the first time during this job
81915.266 (1) Retain: beginning examination of existing backup sets; user setting: retain_files=5, retain_db=10
81915.267 (1) Number of backup sets in history: 5; groups (db): 1
81915.267 (1) Examining (for databases) backup set with group_id=0, nonce=51d797911427, datestamp=1501428251 (Jul 30 2017 15:24:11)
81915.267 (1) Examining (for databases) backup set with group_id=0, nonce=96b2315d2f9b, datestamp=1501428244 (Jul 30 2017 15:24:04)
81915.267 (1) This backup set is the backup set just made, so will not be deleted.
81915.268 (1) Examining (for databases) backup set with group_id=0, nonce=9a863c767141, datestamp=1501292351 (Jul 29 2017 01:39:11)
81915.268 (1) Examining (for databases) backup set with group_id=0, nonce=e2a33da45efa, datestamp=1501291127 (Jul 29 2017 01:18:47)
81915.268 (1) This backup set remains non-empty (f=0/d=1); will retain in history
81915.269 (1) Examining (for databases) backup set with group_id=0, nonce=c52925f09986, datestamp=1501156634 (Jul 27 2017 11:57:14)
81915.269 (1) This backup set remains non-empty (f=1/d=1); will retain in history
81915.269 (1) Number of backup sets in history: 5; groups (files): 1
81915.269 (1) Examining (for files) backup set with nonce=51d797911427, datestamp=1501428251 (Jul 30 2017 15:24:11)
81915.270 (1) This backup set remains non-empty (f=1/d=0); will retain in history
81915.270 (1) Examining (for files) backup set with nonce=96b2315d2f9b, datestamp=1501428244 (Jul 30 2017 15:24:04)
81915.270 (1) This backup set remains non-empty (f=0/d=1); will retain in history
81915.270 (1) Examining (for files) backup set with nonce=9a863c767141, datestamp=1501292351 (Jul 29 2017 01:39:11)
81915.271 (1) This backup set remains non-empty (f=1/d=0); will retain in history
81915.271 (1) Examining (for files) backup set with nonce=e2a33da45efa, datestamp=1501291127 (Jul 29 2017 01:18:47)
81915.271 (1) This backup set remains non-empty (f=0/d=1); will retain in history
81915.272 (1) Examining (for files) backup set with nonce=c52925f09986, datestamp=1501156634 (Jul 27 2017 11:57:14)
81915.272 (1) This backup set remains non-empty (f=1/d=1); will retain in history
81915.272 (1) Retain: saving new backup history (sets now: 5) and finishing retain operation
81915.273 (1) Resume backup (96b2315d2f9b, 1): finish run
81915.274 (1) There were errors in the uploads, so the 'resume' event is remaining scheduled
81915.274 (1) No email will/can be sent - the user has not configured an email address.
81915.275 (1) The backup has not finished; a resumption is scheduled
120002.061 (2) Opened log file at time: Tue, 01 Aug 2017 00:44:06 +0000 on http://www.eduquesthub.com
120002.062 (2) UpdraftPlus WordPress backup plugin (https://updraftplus.com): 1.13.4 WP: 4.8 PHP: 7.0.18-0ubuntu0.16.04.1 (apache2handler, Linux ip-172-31-28-165 4.4.0-1022-aws #31-Ubuntu SMP Tue Jun 27 11:27:55 UTC 2017 x86_64) MySQL: 5.7.19 WPLANG: en_US Server: Apache/2.4.18 (Ubuntu) safe_mode: 0 max_execution_time: 900 memory_limit: 256M (used: 13.1M | 6M) multisite: N openssl: OpenSSL 1.0.2g  1 Mar 2016 mcrypt: N LANG: C ZipArchive::addFile: N
120002.062 (2) Free space on disk containing Updraft's temporary directory: 3526.6 MB
120002.063 (2) Backup run: resumption=2, nonce=96b2315d2f9b, begun at=1501428244 (120002s ago), job type=backup
120002.063 (2) Long time past since expected resumption time: approx expected=1501510460.2, now=1501548247, diff=37786.8
120002.064 (2) [Warning] Your website is visited infrequently and UpdraftPlus is not getting the resources it hoped for; please read this page: https://updraftplus.com/faqs/why-am-i-getting-warnings-about-my-site-not-having-enough-visitors/
120002.065 (2) Scheduling a resumption (3) after 300 seconds (1501548546) in case this run gets aborted
120002.066 (2) This backup run is not intended for files - skipping
120002.066 (2) Database dump (WordPress DB): Creation was completed already
120002.069 (2) backup_2017-07-30-1524_Eduquest_Hub_96b2315d2f9b-db.gz: db: This file has not yet been successfully uploaded: will queue
120002.069 (2) Saving backup history. Total backup size: 5.4 MB
120002.070 (2) Requesting upload of the files that have not yet been successfully uploaded (1)
120002.071 (2) Cloud backup selection (1/1): dropbox (last)
120002.074 (2) Beginning dispatch of backup to remote (dropbox)
120002.075 (2) You do not appear to be authenticated with Dropbox (1)
120002.075 (2) An error condition has occurred for the first time during this job
120002.076 (2) Retain: beginning examination of existing backup sets; user setting: retain_files=5, retain_db=10
120002.076 (2) Number of backup sets in history: 7; groups (db): 1
120002.076 (2) Examining (for databases) backup set with group_id=0, nonce=d29f9e713b37, datestamp=1501510207 (Jul 31 2017 14:10:07)
120002.077 (2) Examining (for databases) backup set with group_id=0, nonce=0938290b62b2, datestamp=1501510183 (Jul 31 2017 14:09:43)
120002.077 (2) This backup set remains non-empty (f=0/d=1); will retain in history
120002.077 (2) Examining (for databases) backup set with group_id=0, nonce=51d797911427, datestamp=1501428251 (Jul 30 2017 15:24:11)
120002.078 (2) Examining (for databases) backup set with group_id=0, nonce=96b2315d2f9b, datestamp=1501428244 (Jul 30 2017 15:24:04)
120002.078 (2) This backup set is the backup set just made, so will not be deleted.
120002.078 (2) Examining (for databases) backup set with group_id=0, nonce=9a863c767141, datestamp=1501292351 (Jul 29 2017 01:39:11)
120002.078 (2) Examining (for databases) backup set with group_id=0, nonce=e2a33da45efa, datestamp=1501291127 (Jul 29 2017 01:18:47)
120002.079 (2) This backup set remains non-empty (f=0/d=1); will retain in history
120002.079 (2) Examining (for databases) backup set with group_id=0, nonce=c52925f09986, datestamp=1501156634 (Jul 27 2017 11:57:14)
120002.079 (2) This backup set remains non-empty (f=1/d=1); will retain in history
120002.080 (2) Number of backup sets in history: 7; groups (files): 1
120002.080 (2) Examining (for files) backup set with nonce=d29f9e713b37, datestamp=1501510207 (Jul 31 2017 14:10:07)
120002.080 (2) This backup set remains non-empty (f=1/d=0); will retain in history
120002.080 (2) Examining (for files) backup set with nonce=0938290b62b2, datestamp=1501510183 (Jul 31 2017 14:09:43)
120002.081 (2) This backup set remains non-empty (f=0/d=1); will retain in history
120002.081 (2) Examining (for files) backup set with nonce=51d797911427, datestamp=1501428251 (Jul 30 2017 15:24:11)
120002.081 (2) This backup set remains non-empty (f=1/d=0); will retain in history
120002.081 (2) Examining (for files) backup set with nonce=96b2315d2f9b, datestamp=1501428244 (Jul 30 2017 15:24:04)
120002.082 (2) This backup set remains non-empty (f=0/d=1); will retain in history
120002.082 (2) Examining (for files) backup set with nonce=9a863c767141, datestamp=1501292351 (Jul 29 2017 01:39:11)
120002.082 (2) This backup set remains non-empty (f=1/d=0); will retain in history
120002.083 (2) Examining (for files) backup set with nonce=e2a33da45efa, datestamp=1501291127 (Jul 29 2017 01:18:47)
120002.083 (2) This backup set remains non-empty (f=0/d=1); will retain in history
120002.083 (2) Examining (for files) backup set with nonce=c52925f09986, datestamp=1501156634 (Jul 27 2017 11:57:14)
120002.083 (2) This backup set remains non-empty (f=1/d=1); will retain in history
120002.084 (2) Retain: saving new backup history (sets now: 7) and finishing retain operation
120002.085 (2) Resume backup (96b2315d2f9b, 2): finish run
120002.085 (2) There were errors in the uploads, so the 'resume' event is remaining scheduled
120002.086 (2) No email will/can be sent - the user has not configured an email address.
120002.086 (2) The backup has not finished; a resumption is scheduled
0000.000 (3) Opened log file at time: Tue, 01 Aug 2017 07:35:41 +0000 on http://www.eduquesthub.com
0000.000 (3) UpdraftPlus WordPress backup plugin (https://updraftplus.com): 1.13.4 WP: 4.8 PHP: 7.0.18-0ubuntu0.16.04.1 (apache2handler, Linux ip-172-31-28-165 4.4.0-1022-aws #31-Ubuntu SMP Tue Jun 27 11:27:55 UTC 2017 x86_64) MySQL: 5.7.19 WPLANG: en_US Server: Apache/2.4.18 (Ubuntu) safe_mode: 0 max_execution_time: 900 memory_limit: 256M (used: 12.7M | 8M) multisite: N openssl: OpenSSL 1.0.2g  1 Mar 2016 mcrypt: N LANG: C ZipArchive::addFile: N
0000.001 (3) Free space on disk containing Updraft's temporary directory: 3536.5 MB
0000.003 (3) This backup task (96b2315d2f9b) is either complete or began over 2 days ago: ending (1501572941.8015, ) (existing jobdata keys: )
